<svg width="14" height="10" viewBox="0 0 14 10" fill="none" xmlns="http://www.w3.org/2000/svg">
<path d="M4.73042 8.40065L0.979014 4.67977C0.926486 4.62579 0.863652 4.58274 0.79418 4.55312C0.724707 4.5235 0.649986 4.50791 0.574378 4.50726C0.498769 4.5066 0.423787 4.5209 0.353806 4.54932C0.283825 4.57774 0.220247 4.6197 0.166782 4.67276C0.113317 4.72582 0.0710348 4.78892 0.0424033 4.85838C0.0137719 4.92783 -0.000635517 5.00225 2.15e-05 5.07729C0.000678517 5.15233 0.016387 5.22648 0.0462302 5.29543C0.0760735 5.36438 0.119454 5.42674 0.17384 5.47888L4.72928 10L13.8402 0.95775C13.9439 0.851164 14.0013 0.708408 14 0.56023C13.9987 0.412052 13.9388 0.270308 13.8332 0.165526C13.7276 0.0607444 13.5848 0.00130899 13.4355 2.13638e-05C13.2862 -0.00126626 13.1424 0.0556967 13.035 0.158642L4.72928 8.40065H4.73042Z" fill="#EAC881"/>
</svg>
