<svg width="35" height="35" viewBox="0 0 35 35" fill="none" xmlns="http://www.w3.org/2000/svg">
<path d="M27.2037 25.6594L31.4759 29.9294C31.6751 30.1356 31.7853 30.4119 31.7828 30.6987C31.7804 30.9855 31.6653 31.2598 31.4625 31.4626C31.2597 31.6654 30.9854 31.7804 30.6986 31.7829C30.4119 31.7854 30.1356 31.6752 29.9293 31.4759L25.6571 27.2037C22.8653 29.5956 19.2556 30.8133 15.5855 30.6011C11.9153 30.389 8.46993 28.7635 5.97235 26.0659C3.47478 23.3682 2.11914 19.808 2.18989 16.1324C2.26065 12.4568 3.75229 8.95143 6.35183 6.35189C8.95137 3.75235 12.4567 2.26071 16.1324 2.18995C19.808 2.1192 23.3681 3.47484 26.0658 5.97241C28.7635 8.46999 30.3889 11.9153 30.6011 15.5855C30.8132 19.2557 29.5956 22.8654 27.2037 25.6572V25.6594ZM16.4062 28.4375C19.5971 28.4375 22.6573 27.1699 24.9136 24.9136C27.1698 22.6573 28.4374 19.5971 28.4374 16.4062C28.4374 13.2154 27.1698 10.1552 24.9136 7.89886C22.6573 5.64257 19.5971 4.37499 16.4062 4.37499C13.2153 4.37499 10.1551 5.64257 7.8988 7.89886C5.64251 10.1552 4.37493 13.2154 4.37493 16.4062C4.37493 19.5971 5.64251 22.6573 7.8988 24.9136C10.1551 27.1699 13.2153 28.4375 16.4062 28.4375V28.4375ZM12.0312 15.3125H20.7812C21.0713 15.3125 21.3495 15.4277 21.5546 15.6328C21.7597 15.838 21.8749 16.1162 21.8749 16.4062C21.8749 16.6963 21.7597 16.9745 21.5546 17.1796C21.3495 17.3848 21.0713 17.5 20.7812 17.5H12.0312C11.7411 17.5 11.4629 17.3848 11.2578 17.1796C11.0527 16.9745 10.9374 16.6963 10.9374 16.4062C10.9374 16.1162 11.0527 15.838 11.2578 15.6328C11.4629 15.4277 11.7411 15.3125 12.0312 15.3125V15.3125Z" fill="#061A33"/>
</svg>
