<svg width="35" height="35" viewBox="0 0 35 35" fill="none" xmlns="http://www.w3.org/2000/svg">
<circle cx="17.5" cy="14.5" r="7.5" fill="white"/>
<path d="M17.5 31.7188C18.3181 31.7188 21.5163 29.3825 24.0647 26.4841C27.4619 22.6231 29.5312 18.3137 29.5312 14.2188C29.5312 7.73719 24.2047 3.28125 17.5 3.28125C10.7953 3.28125 5.46875 7.73719 5.46875 14.2188C5.46875 18.3312 7.53813 22.6406 10.9353 26.4972C13.4816 29.3891 16.6797 31.7188 17.5 31.7188ZM17.5 16.8437C18.0802 16.8437 18.6366 16.6133 19.0468 16.203C19.457 15.7928 19.6875 15.2364 19.6875 14.6562C19.6875 14.0761 19.457 13.5197 19.0468 13.1095C18.6366 12.6992 18.0802 12.4687 17.5 12.4687C16.9198 12.4687 16.3634 12.6992 15.9532 13.1095C15.543 13.5197 15.3125 14.0761 15.3125 14.6562C15.3125 15.2364 15.543 15.7928 15.9532 16.203C16.3634 16.6133 16.9198 16.8437 17.5 16.8437V16.8437ZM17.5 21.6562C15.6435 21.6562 13.863 20.9188 12.5503 19.606C11.2375 18.2932 10.5 16.5128 10.5 14.6562C10.5 12.7997 11.2375 11.0193 12.5503 9.7065C13.863 8.39375 15.6435 7.65625 17.5 7.65625C19.3565 7.65625 21.137 8.39375 22.4497 9.7065C23.7625 11.0193 24.5 12.7997 24.5 14.6562C24.5 16.5128 23.7625 18.2932 22.4497 19.606C21.137 20.9188 19.3565 21.6562 17.5 21.6562V21.6562Z" fill="url(#paint0_linear_1497_949)"/>
<defs>
<linearGradient id="paint0_linear_1497_949" x1="17.5" y1="3.28125" x2="17.5" y2="31.7188" gradientUnits="userSpaceOnUse">
<stop stop-color="#3DDA4D"/>
<stop offset="1" stop-color="#1F9524"/>
</linearGradient>
</defs>
</svg>
