<svg width="64" height="64" viewBox="0 0 64 64" fill="none" xmlns="http://www.w3.org/2000/svg">
<g clip-path="url(#clip0_1368_936)">
<path fill-rule="evenodd" clip-rule="evenodd" d="M18.6799 2.91204C19.4659 2.55204 20.2609 2.23004 21.0609 1.93804C21.1709 1.89804 21.2819 1.85704 21.3919 1.81804C22.2029 1.53304 23.0209 1.28004 23.8429 1.06404C23.9229 1.04304 24.0029 1.02404 24.0839 1.00304C24.9449 0.78304 25.8099 0.59504 26.6779 0.44904C29.5199 -0.0279598 32.3869 -0.10796 35.2069 0.18004C25.7799 8.14804 23.0929 21.941 29.4809 33.006C36.0099 44.315 49.7439 48.831 61.5329 44.165C60.4549 46.791 59.0449 49.287 57.2859 51.567C56.0509 53.167 54.6559 54.664 53.1059 56.03C52.9939 56.129 52.8679 56.215 52.7539 56.312C52.0819 56.887 51.3959 57.45 50.6679 57.974C49.8069 58.593 48.9099 59.177 47.9729 59.718C32.6749 68.554 13.1139 63.31 4.28088 48.006C-4.55112 32.702 0.690879 13.133 15.9879 4.29804C16.7789 3.84104 17.5839 3.43004 18.3959 3.04904C18.4909 3.00404 18.5849 2.95604 18.6799 2.91204ZM9.47788 45.006C16.6579 57.443 32.5599 61.704 44.9959 54.523C46.3639 53.734 47.6149 52.822 48.7809 51.838C38.9019 50.834 29.6289 45.266 24.2849 36.006C19.1329 27.079 18.7999 16.713 22.4279 7.86004C21.2639 8.32304 20.1119 8.84404 18.9949 9.48804C6.55888 16.668 2.29788 32.57 9.47788 45.006Z" fill="#1B3B62"/>
</g>
<defs>
<clipPath id="clip0_1368_936">
<rect width="64" height="64" fill="white"/>
</clipPath>
</defs>
</svg>
