<svg width="80" height="65" viewBox="0 0 80 65" fill="none" xmlns="http://www.w3.org/2000/svg">
<path fill-rule="evenodd" clip-rule="evenodd" d="M79.9541 40.0009C79.9541 48.834 72.7941 55.9939 63.9611 55.9939H54.1921C53.1391 55.8169 53.0561 54.93 53.5311 54.063C53.5431 54.041 53.5431 54.027 53.5511 54.007C53.8911 53.385 54.2531 52.723 54.6211 52.048C54.6541 52.004 54.6871 51.9629 54.7191 51.9059C55.4111 50.6599 56.1561 50 57.9381 50C57.9561 50 57.9671 49.9959 57.9851 49.9959H63.9461C69.4591 49.9959 73.9281 45.527 73.9281 40.013C73.9281 34.973 70.1901 30.8169 65.3371 30.1379C65.7431 28.8289 65.9631 27.4369 65.9631 25.9929C65.9631 18.2739 59.7051 12.0169 51.9861 12.0169C49.0551 12.0169 46.3371 12.9229 44.0901 14.4649C41.3921 9.44995 36.0971 6.03995 30.0031 6.03995C21.1721 6.03995 14.0131 13.1989 14.0131 22.0289C14.0131 24.9479 14.8081 27.6749 16.1741 30.0299H15.9841C10.4711 30.0299 6.00108 34.5 6.00108 40.013C6.00108 45.527 10.4711 49.9959 15.9841 49.9959H19.9961C20.0101 49.9959 20.0171 50 20.0311 50C21.2501 50 21.8751 50.812 21.3441 51.812C21.3321 51.834 21.3341 51.847 21.3271 51.866C20.8421 52.76 20.3781 53.615 19.9631 54.379C19.4681 55.214 18.8411 55.9629 17.3111 55.9939H16.0001C7.16708 55.9939 0.00708008 48.834 0.00708008 40.0009C0.00708008 33.9299 3.38908 28.6499 8.37208 25.9409C8.13908 24.6589 7.99908 23.3449 7.99908 21.9969C7.99908 9.86095 17.8371 0.0229492 29.9731 0.0229492C36.2771 0.0229492 41.9461 2.69195 45.9531 6.94395C47.8521 6.34495 49.8731 6.01895 51.9701 6.01895C63.0111 6.01895 71.9611 14.9689 71.9611 26.0099C71.9611 26.0609 71.9541 26.1109 71.9531 26.1619C76.7311 28.9279 79.9541 34.0829 79.9541 40.0009ZM31.2861 53.727C33.9261 55.251 34.8301 58.6259 33.3061 61.2659C31.7821 63.9059 28.4071 64.8099 25.7671 63.2859C23.1271 61.7619 22.2231 58.386 23.7471 55.747C25.2711 53.107 28.6461 52.203 31.2861 53.727ZM31.7191 50.803C31.0011 50.389 30.7561 49.472 31.1701 48.754C31.5841 48.037 36.7871 38.4629 37.2011 37.7459C37.6151 37.0279 38.5331 36.7829 39.2501 37.1969C39.9671 37.6109 40.2131 38.5279 39.7991 39.2459C39.3851 39.9629 34.1821 49.537 33.7681 50.254C33.3541 50.972 32.4361 51.217 31.7191 50.803ZM45.7191 50.803C45.0011 50.389 44.7551 49.472 45.1701 48.754C45.5841 48.037 50.7871 38.4629 51.2011 37.7459C51.6151 37.0279 52.5331 36.7829 53.2501 37.1969C53.9671 37.6109 54.2131 38.5279 53.7991 39.2459C53.3851 39.9629 48.1821 49.537 47.7681 50.254C47.3541 50.972 46.4361 51.217 45.7191 50.803ZM45.2861 53.727C47.9261 55.251 48.8301 58.6259 47.3061 61.2659C45.7821 63.9059 42.4071 64.8099 39.7671 63.2859C37.1271 61.7619 36.2231 58.386 37.7471 55.747C39.2711 53.107 42.6461 52.203 45.2861 53.727Z" fill="#1B3B62"/>
</svg>
