<svg width="82" height="69" viewBox="0 0 82 69" fill="none" xmlns="http://www.w3.org/2000/svg">
<path fill-rule="evenodd" clip-rule="evenodd" d="M79.594 35.4281C78.704 38.0271 77.424 40.4981 75.74 42.7201C74.724 44.0601 73.569 45.313 72.282 46.454C72.215 46.513 72.139 46.5631 72.072 46.6221C71.489 47.1281 70.888 47.619 70.252 48.078C69.542 48.59 68.799 49.0721 68.024 49.5191C65.786 50.8121 63.433 51.721 61.041 52.291C61.659 53.737 62.003 55.329 62.003 57.001C62.003 63.625 56.633 68.995 50.008 68.995H12.005C5.38099 68.995 0.0109863 63.625 0.0109863 57.001C0.0109863 53.406 1.60099 50.1891 4.10599 47.9901C4.03799 47.3361 4.00099 46.673 4.00099 46.002C4.00099 35.509 12.507 27.003 23 27.003C25.127 27.003 27.166 27.368 29.076 28.013C28.709 18.678 33.374 9.46405 42.024 4.46805C42.772 4.03605 43.533 3.65105 44.303 3.30105C44.912 3.02605 45.53 2.79305 46.149 2.56905C46.298 2.51505 46.445 2.44705 46.595 2.39505C48.137 1.87005 49.707 1.49705 51.285 1.26805C54.037 0.869048 56.809 0.907048 59.504 1.38005C51.918 7.44605 49.673 18.288 54.678 26.957C59.748 35.739 70.471 39.1971 79.594 35.4281ZM23 33.001C15.821 33.001 10.002 38.8201 10.002 45.9991C10.002 47.8131 10.376 49.539 11.047 51.107C8.19199 51.568 6.00499 54.025 6.00499 57.01C6.00499 60.324 8.69199 63.01 12.005 63.01H50.016C53.33 63.01 56.016 60.324 56.016 57.01C56.016 53.697 53.33 51.0111 50.016 51.0111H47.594C47.888 50.0681 48.047 49.0661 48.047 48.0261C48.047 42.5011 43.567 38.021 38.041 38.021C36.561 38.021 35.161 38.3511 33.897 38.9281C31.579 35.3631 27.568 33.001 23 33.001ZM49.484 29.999C45.557 23.195 45.074 15.36 47.457 8.47705C46.631 8.81605 45.813 9.19205 45.018 9.65105C37.089 14.228 33.518 23.413 35.666 31.87C35.779 31.971 35.892 32.071 36.003 32.175C36.672 32.086 37.349 32.022 38.042 32.022C46.078 32.022 52.711 37.95 53.854 45.668C54.763 45.979 55.634 46.375 56.431 46.882C59.362 46.676 62.292 45.841 65.008 44.274C65.878 43.771 66.677 43.196 67.441 42.59C60.158 41.287 53.473 36.911 49.484 29.999Z" fill="#1B3B62"/>
</svg>
