<svg width="80" height="64" viewBox="0 0 80 64" fill="none" xmlns="http://www.w3.org/2000/svg">
<g clip-path="url(#clip0_1368_922)">
<path fill-rule="evenodd" clip-rule="evenodd" d="M79.9541 40.0009C79.9541 48.834 72.7941 55.9939 63.9611 55.9939H63.3111C62.5741 55.8039 62.0031 54.558 62.0031 53.032C62.0031 51.375 62.6741 50.032 63.5031 50.032C63.5381 50.032 63.5761 50.0169 63.6141 49.9959H63.9461C69.4591 49.9959 73.9281 45.526 73.9281 40.013C73.9281 34.973 70.1901 30.8169 65.3371 30.1379C65.7431 28.8289 65.9631 27.4369 65.9631 25.9929C65.9631 18.2739 59.7051 12.0169 51.9861 12.0169C49.0551 12.0169 46.3371 12.9229 44.0901 14.4649C41.3921 9.44995 36.0971 6.03995 30.0031 6.03995C21.1721 6.03995 14.0131 13.1979 14.0131 22.0289C14.0131 24.9479 14.8081 27.6749 16.1741 30.0299H15.9841C10.4711 30.0299 6.00108 34.5 6.00108 40.013C6.00108 45.526 10.4711 49.9959 15.9841 49.9959H16.6101C16.6231 49.9969 16.6281 50.0009 16.6421 50.0009C17.9851 50.0009 19.4841 50.7819 18.6411 51.9679C18.6191 51.9979 18.6171 52.02 18.6031 52.047C17.9991 52.915 17.4281 53.74 16.9061 54.498C16.8801 54.531 16.8561 54.552 16.8291 54.591C16.2651 55.4029 15.7261 55.796 15.0921 55.943C6.68508 55.469 0.00708008 48.5269 0.00708008 40.0009C0.00708008 33.9299 3.38908 28.6499 8.37208 25.9409C8.13908 24.6589 7.99908 23.3449 7.99908 21.9969C7.99908 9.86095 17.8371 0.0229492 29.9731 0.0229492C36.2781 0.0229492 41.9461 2.69195 45.9531 6.94395C47.8521 6.34595 49.8731 6.01895 51.9701 6.01895C63.0111 6.01895 71.9611 14.9689 71.9611 26.0099C71.9611 26.0609 71.9541 26.1109 71.9531 26.1619C76.7311 28.9279 79.9541 34.0829 79.9541 40.0009ZM31.2561 41.0219C31.8071 40.0679 33.0261 39.741 33.9801 40.292C34.9341 40.843 35.2611 42.0619 34.7101 43.0169C34.1601 43.9699 27.5681 60.09 26.4661 61.998C25.3651 63.906 22.9251 64.56 21.0171 63.458C19.1091 62.357 18.4561 59.9169 19.5571 58.0089C20.6591 56.1009 30.7051 41.9759 31.2561 41.0219ZM37.6711 54.0919C38.5021 53.6119 42.6921 52.0299 45.3301 51.0169C42.6901 50.0019 38.5041 48.4199 37.6731 47.9399C36.4771 47.2499 36.0671 45.721 36.7571 44.525C37.4481 43.329 38.9771 42.92 40.1731 43.61C41.0041 44.09 44.4731 46.9309 46.6711 48.7109C46.2301 45.9209 45.5071 41.4989 45.5071 40.5379C45.5071 39.1569 46.6261 38.0379 48.0071 38.0379C49.3871 38.0379 50.5071 39.1569 50.5071 40.5379C50.5071 41.4989 49.7811 45.9239 49.3381 48.7169C51.5371 46.9379 55.0071 44.098 55.8391 43.618C57.0341 42.928 58.5631 43.337 59.2541 44.533C59.9441 45.729 59.5341 47.258 58.3391 47.948C57.5061 48.429 53.3031 50.016 50.6651 51.028C53.3051 52.043 57.4961 53.6269 58.3271 54.1069C59.5231 54.7969 59.9331 56.3259 59.2421 57.5219C58.5521 58.7179 57.0231 59.127 55.8271 58.437C54.9961 57.957 51.5271 55.1159 49.3291 53.3359C49.7701 56.1259 50.4931 60.5479 50.4931 61.5089C50.4931 62.8899 49.3741 64.009 47.9931 64.009C46.6131 64.009 45.4931 62.8899 45.4931 61.5089C45.4931 60.5479 46.2191 56.124 46.6611 53.331C44.4631 55.11 41.0011 57.943 40.1711 58.422C38.9751 59.112 37.4461 58.703 36.7561 57.507C36.0651 56.311 36.4751 54.7819 37.6711 54.0919Z" fill="#1B3B62"/>
</g>
<defs>
<clipPath id="clip0_1368_922">
<rect width="80" height="64" fill="white"/>
</clipPath>
</defs>
</svg>
