<svg width="80" height="64" viewBox="0 0 80 64" fill="none" xmlns="http://www.w3.org/2000/svg">
<g clip-path="url(#clip0_1368_920)">
<path fill-rule="evenodd" clip-rule="evenodd" d="M79.9541 40.024C79.9541 48.857 72.7941 56.017 63.9611 56.017H57.4271C56.6351 55.937 56.0031 54.638 56.0031 53.032C56.0031 51.376 56.6741 50.032 57.5031 50.032C57.5221 50.032 57.5421 50.026 57.5621 50.019H63.9451C69.4591 50.019 73.9291 45.55 73.9291 40.037C73.9291 34.997 70.1901 30.841 65.3371 30.162C65.7431 28.852 65.9631 27.46 65.9631 26.017C65.9631 18.298 59.7051 12.04 51.9861 12.04C49.0551 12.04 46.3371 12.946 44.0901 14.489C41.3921 9.47402 36.0971 6.06302 30.0031 6.06302C21.1721 6.06302 14.0131 13.222 14.0131 22.052C14.0131 24.971 14.8081 27.699 16.1741 30.054H15.9841C10.4711 30.054 6.00108 34.523 6.00108 40.037C6.00108 45.55 10.4711 50.019 15.9841 50.019H22.4431C22.4631 50.026 22.4831 50.032 22.5031 50.032C23.3311 50.032 24.0031 51.376 24.0031 53.032C24.0031 54.638 23.3711 55.937 22.5781 56.017H16.0001C7.16708 56.017 0.00708008 48.857 0.00708008 40.024C0.00708008 33.954 3.38908 28.673 8.37208 25.964C8.13908 24.683 7.99908 23.369 7.99908 22.02C7.99908 9.88402 17.8371 0.0460205 29.9731 0.0460205C36.2781 0.0460205 41.9461 2.71602 45.9531 6.96802C47.8521 6.36902 49.8731 6.04302 51.9701 6.04302C63.0111 6.04302 71.9611 14.993 71.9611 26.033C71.9611 26.085 71.9541 26.134 71.9531 26.186C76.7311 28.951 79.9541 34.106 79.9541 40.024ZM29.6711 54.092C30.5021 53.612 34.6921 52.03 37.3301 51.017C34.6901 50.002 30.5041 48.42 29.6731 47.94C28.4771 47.25 28.0671 45.721 28.7581 44.525C29.4481 43.329 30.9771 42.92 32.1731 43.61C33.0041 44.09 36.4731 46.931 38.6711 48.711C38.2301 45.921 37.5071 41.499 37.5071 40.538C37.5071 39.157 38.6261 38.038 40.0071 38.038C41.3871 38.038 42.5071 39.157 42.5071 40.538C42.5071 41.498 41.7811 45.924 41.3381 48.717C43.5371 46.938 47.0071 44.098 47.8391 43.618C49.0341 42.927 50.5631 43.337 51.2541 44.533C51.9441 45.729 51.5341 47.258 50.3391 47.948C49.5061 48.429 45.3031 50.016 42.6651 51.028C45.3051 52.043 49.4961 53.627 50.3271 54.107C51.5231 54.797 51.9331 56.326 51.2421 57.522C50.5521 58.718 49.0231 59.127 47.8271 58.437C46.9961 57.957 43.5271 55.116 41.3291 53.336C41.7701 56.126 42.4931 60.548 42.4931 61.509C42.4931 62.89 41.3741 64.009 39.9931 64.009C38.6131 64.009 37.4931 62.89 37.4931 61.509C37.4931 60.548 38.2191 56.124 38.6611 53.331C36.4631 55.11 33.0011 57.943 32.1711 58.422C30.9751 59.112 29.4461 58.703 28.7561 57.507C28.0651 56.311 28.4751 54.782 29.6711 54.092Z" fill="#1B3B62"/>
</g>
<defs>
<clipPath id="clip0_1368_920">
<rect width="80" height="64" fill="white"/>
</clipPath>
</defs>
</svg>
