<svg width="80" height="65" viewBox="0 0 80 65" fill="none" xmlns="http://www.w3.org/2000/svg">
<path fill-rule="evenodd" clip-rule="evenodd" d="M79.9541 40.024C79.9541 48.857 72.7941 56.017 63.9611 56.017H55.5401C55.5271 56.015 55.5151 56.009 55.5031 56.009C54.6741 56.009 54.0031 54.666 54.0031 53.009C54.0031 51.388 54.6461 50.076 55.4501 50.019H63.9451C69.4591 50.019 73.9281 45.55 73.9281 40.037C73.9281 34.997 70.1901 30.841 65.3371 30.162C65.7431 28.852 65.9631 27.46 65.9631 26.017C65.9631 18.298 59.7051 12.04 51.9861 12.04C49.0551 12.04 46.3371 12.946 44.0901 14.489C41.3921 9.47402 36.0971 6.06302 30.0031 6.06302C21.1721 6.06302 14.0131 13.222 14.0131 22.052C14.0131 24.971 14.8081 27.699 16.1741 30.054H15.9841C10.4711 30.054 6.00108 34.523 6.00108 40.037C6.00108 45.55 10.4711 50.019 15.9841 50.019H24.5561C25.3591 50.076 26.0031 51.388 26.0031 53.009C26.0031 54.666 25.3311 56.009 24.5031 56.009C24.4911 56.009 24.4741 56.015 24.4601 56.017H16.0001C7.16708 56.017 0.00708008 48.857 0.00708008 40.024C0.00708008 33.954 3.38908 28.673 8.37208 25.964C8.13908 24.683 7.99908 23.369 7.99908 22.02C7.99908 9.88402 17.8371 0.0460205 29.9731 0.0460205C36.2781 0.0460205 41.9461 2.71602 45.9531 6.96802C47.8521 6.36902 49.8731 6.04302 51.9701 6.04302C63.0111 6.04302 71.9611 14.993 71.9611 26.033C71.9611 26.085 71.9541 26.134 71.9531 26.186C76.7311 28.952 79.9541 34.106 79.9541 40.024ZM30.1941 50.484L41.8001 36.46L41.8331 36.468C42.0391 36.196 42.3781 36.006 42.7831 36.006C43.4181 36.006 43.9321 36.449 43.9371 36.994L43.9691 37.002L42.0721 46.612C42.0121 46.732 41.9781 46.864 41.9781 47.003C41.9781 47.553 42.4961 47.999 43.1341 47.999C43.1541 47.999 43.1711 47.99 43.1911 47.989L43.2171 48.01H48.8421C48.8631 48.009 48.8801 47.999 48.9011 47.999C49.5401 47.999 50.0571 48.445 50.0571 48.996C50.0571 49.228 49.9511 49.431 49.7971 49.601L49.8181 49.639L38.0601 63.572L38.0461 63.569C37.8391 63.84 37.5001 64.03 37.0961 64.03C36.4581 64.03 35.9401 63.584 35.9401 63.034C35.9401 63.023 35.9471 63.015 35.9471 63.005L35.9261 62.999L37.9111 53.281C37.9471 53.185 37.9811 53.088 37.9811 52.982C37.9811 52.432 37.4641 51.986 36.8251 51.986C36.8091 51.986 36.7951 51.994 36.7781 51.994L36.7761 51.992L31.3171 51.963C31.2711 51.967 31.2311 51.986 31.1831 51.986C30.5451 51.986 30.0271 51.54 30.0271 50.989C30.0271 50.805 30.1011 50.642 30.2021 50.494L30.1941 50.484Z" fill="#1B3B62"/>
</svg>
